{
  "npmScope": "ijs-london",
  "affected": {
    "defaultBase": "master"
  },
  "implicitDependencies": {
    "package.json": {
      "dependencies": "*",
      "devDependencies": "*"
    },
    ".eslintrc.json": "*"
  },
  "tasksRunnerOptions": {
    "default": {
      "runner": "@nrwl/workspace/tasks-runners/default",
      "options": {
        "cacheableOperations": ["build", "lint", "test", "e2e"]
      }
    }
  },
  "targetDependencies": {
    "build": [
      {
        "target": "build",
        "projects": "dependencies"
      }
    ]
  },
  "projects": {
    "dashboard": {
      "tags": []
    },
    "dashboard-e2e": {
      "tags": [],
      "implicitDependencies": ["dashboard"]
    },
    "dashboard-listings": {
      "tags": []
    },
    "dashboard-types": {
      "tags": []
    },
    "error-handling": {
      "tags": []
    },
    "logging": {
      "tags": []
    }
  }
}
